digraph "spieldamegui.h"
{
  edge [fontname="Helvetica",fontsize="10",labelfontname="Helvetica",labelfontsize="10"];
  node [fontname="Helvetica",fontsize="10",shape=record];
  Node11 [label="spieldamegui.h",height=0.2,width=0.4,color="black", fillcolor="grey75", style="filled", fontcolor="black"];
  Node11 -> Node12 [dir="back",color="midnightblue",fontsize="10",style="solid",fontname="Helvetica"];
  Node12 [label="main.cpp",height=0.2,width=0.4,color="black", fillcolor="white", style="filled",URL="$main_8cpp.html"];
  Node11 -> Node13 [dir="back",color="midnightblue",fontsize="10",style="solid",fontname="Helvetica"];
  Node13 [label="spieldameablaufsteuerung.cpp",height=0.2,width=0.4,color="black", fillcolor="white", style="filled",URL="$spieldameablaufsteuerung_8cpp.html"];
  Node11 -> Node14 [dir="back",color="midnightblue",fontsize="10",style="solid",fontname="Helvetica"];
  Node14 [label="spieldamegui.cpp",height=0.2,width=0.4,color="black", fillcolor="white", style="filled",URL="$spieldamegui_8cpp.html"];
}
